{
  "page": 2,
  "total_results": 10000,
  "total_pages": 500,
  "results": [
    {
      "popularity": 395.911,
      "vote_count": 34,
      "video": false,
      "poster_path": "/q2lkJf1TAjImTHCEO7XvbqPtnPb.jpg",
      "id": 703134,
      "adult": false,
      "backdrop_path": "/j57oUw8LIYvjOl0zs3A1A1UqwKH.jpg",
      "original_language": "en",
      "original_title": "Infamous",
      "genre_ids": [
        80,
        18,
        53
      ],
      "title": "Infamous",
      "vote_average": 5.4,
      "overview": "Two young lovers rob their way across the southland, posting their exploits to social media, and gaining fame and followers as a result.",
      "release_date": "2020-06-12"
    },
    {
      "popularity": 393.757,
      "vote_count": 115,
      "video": false,
      "poster_path": "/lv3RonWge4GlC9ymNzC0oWpFCfv.jpg",
      "id": 611395,
      "adult": false,
      "backdrop_path": "/90yhXKTDNfaV7JnC7RcTpZcRTGC.jpg",
      "original_language": "zh",
      "original_title": "征途",
      "genre_ids": [
        28,
        12,
        14
      ],
      "title": "Double World",
      "vote_average": 6.8,
      "overview": "Keen to bring honor to his clan, young villager Dong Yilong embarks on a perilous journey to compete in a tournament that selects warriors for battle.",
      "release_date": "2020-07-21"
    },
    {
      "popularity": 384.607,
      "vote_count": 685,
      "video": false,
      "poster_path": "/jHo2M1OiH9Re33jYtUQdfzPeUkx.jpg",
      "id": 385103,
      "adult": false,
      "backdrop_path": "/fKtYXUhX5fxMxzQfyUcQW9Shik6.jpg",
      "original_language": "en",
      "original_title": "Scoob!",
      "genre_ids": [
        12,
        16,
        35,
        10751
      ],
      "title": "Scoob!",
      "vote_average": 7.4,
      "overview": "In Scooby-Doo’s greatest adventure yet, see the never-before told story of how lifelong friends Scooby and Shaggy first met and how they joined forces with young detectives Fred, Velma, and Daphne to form the famous Mystery Inc. Now, with hundreds of cases solved, Scooby and the gang face their biggest, toughest mystery ever: an evil plot to unleash the ghost dog Cerberus upon the world. As they race to stop this global “dogpocalypse,” the gang discovers that Scooby has a secret legacy and an epic destiny greater than anyone ever imagined.",
      "release_date": "2020-07-08"
    },
    {
      "popularity": 383.61,
      "vote_count": 2070,
      "video": false,
      "poster_path": "/cjr4NWURcVN3gW5FlHeabgBHLrY.jpg",
      "id": 547016,
      "adult": false,
      "backdrop_path": "/m0ObOaJBerZ3Unc74l471ar8Iiy.jpg",
      "original_language": "en",
      "original_title": "The Old Guard",
      "genre_ids": [
        28,
        14
      ],
      "title": "The Old Guard",
      "vote_average": 7.3,
      "overview": "Four undying warriors who've secretly protected humanity for centuries become targeted for their mysterious powers just as they discover a new immortal.",
      "release_date": "2020-07-10"
    },
    {
      "popularity": 376.61,
      "vote_count": 83,
      "video": false,
      "poster_path": "/bhNHCeJDFDaB00A46AoCw2mggdE.jpg",
      "id": 601165,
      "adult": false,
      "backdrop_path": "/nxxODhq9I05Ze9uLONGvfDrzaUO.jpg",
      "original_language": "en",
      "original_title": "Legacy of Lies",
      "genre_ids": [
        28,
        53
      ],
      "title": "Legacy of Lies",
      "vote_average": 5.8,
      "overview": "An ex-MI6 agent is thrown back into the world of espionage and high stakes to uncover the shocking truth about operations conducted by unknown secret services.",
      "release_date": "2020-08-06"
    },
    {
      "popularity": 375.671,
      "vote_count": 105,
      "video": false,
      "poster_path": "/sDi6wKgECUjDug2gn4uODSqZ3yC.jpg",
      "id": 632618,
      "adult": false,
      "backdrop_path": "/cVdYaAQmd5DZNdo0KFJruz7JpUs.jpg",
      "original_language": "es",
      "original_title": "Crímenes de familia",
      "genre_ids": [
        80,
        18,
        53
      ],
      "title": "The Crimes That Bind",
      "vote_average": 6.5,
      "overview": "When her son is accused of raping and trying to murder his ex-wife, Alicia embarks on a journey that will change her life forever.",
      "release_date": "2020-08-20"
    },
    {
      "popularity": 375.186,
      "vote_count": 106,
      "video": false,
      "poster_path": "/irkse1FMm9dWemwlxKJ7RINT9Iy.jpg",
      "id": 627290,
      "adult": false,
      "backdrop_path": "/pGqBDYycGWsMYc57sYv5M9GAQoW.jpg",
      "original_language": "en",
      "original_title": "Antebellum",
      "genre_ids": [
        27
      ],
      "title": "Antebellum",
      "vote_average": 6.1,
      "overview": "Successful author Veronica finds herself trapped in a horrifying reality and must uncover the mind-bending mystery before it's too late.",
      "release_date": "2020-09-02"
    },
    {
      "popularity": 373.805,
      "vote_count": 838,
      "video": false,
      "poster_path": "/tI8ocADh22GtQFV28vGHaBZVb0U.jpg",
      "id": 475430,
      "adult": false,
      "backdrop_path": "/o0F8xAt8YuEm5mEZviX5pEFC12y.jpg",
      "original_language": "en",
      "original_title": "Artemis Fowl",
      "genre_ids": [
        28,
        12,
        14,
        878,
        10751
      ],
      "title": "Artemis Fowl",
      "vote_average": 5.8,
      "overview": "Artemis Fowl is a 12-year-old genius and descendant of a long line of criminal masterminds. He soon finds himself in an epic battle against a race of powerful underground fairies who may be behind his father's disappearance.",
      "release_date": "2020-06-12"
    },
    {
      "popularity": 371.609,
      "vote_count": 5878,
      "video": false,
      "poster_path": "/h4VB6m0RwcicVEZvzftYZyKXs6K.jpg",
      "id": 495764,
      "adult": false,
      "backdrop_path": "/9xNOiv6DZZjH7ABoUUDP0ZynouU.jpg",
      "original_language": "en",
      "original_title": "Birds of Prey (and the Fantabulous Emancipation of One Harley Quinn)",
      "genre_ids": [
        28,
        35,
        80
      ],
      "title": "Birds of Prey (and the Fantabulous Emancipation of One Harley Quinn)",
      "vote_average": 7.2,
      "overview": "Harley Quinn joins forces with a singer, an assassin and a police detective to help a young girl who had a hit placed on her after she stole a rare diamond from a crime lord.",
      "release_date": "2020-02-05"
    },
    {
      "popularity": 368.389,
      "vote_count": 14,
      "video": false,
      "poster_path": "/vQgXwuJrlpzGDI8169tRQRy71Nv.jpg",
      "id": 479259,
      "adult": false,
      "backdrop_path": "/wUP0KIAXcRevjjJpoSKT7LLhiaK.jpg",
      "original_language": "en",
      "original_title": "Lost Girls & Love Hotels",
      "genre_ids": [
        18,
        53
      ],
      "title": "Lost Girls & Love Hotels",
      "vote_average": 5.6,
      "overview": "Searching for escape in Tokyo's back alleys, a haunted English teacher explores love and lust with a dashing Yakuza, as their tumultuous affair takes her on a journey through the city's dive bars and three-hour love hotels.",
      "release_date": "2020-09-18"
    },
    {
      "popularity": 356.658,
      "vote_count": 1138,
      "video": false,
      "poster_path": "/7W0G3YECgDAfnuiHG91r8WqgIOe.jpg",
      "id": 446893,
      "adult": false,
      "backdrop_path": "/qsxhnirlp7y4Ae9bd11oYJSX59j.jpg",
      "original_language": "en",
      "original_title": "Trolls World Tour",
      "genre_ids": [
        12,
        16,
        35,
        14,
        10402,
        10751
      ],
      "title": "Trolls World Tour",
      "vote_average": 7.6,
      "overview": "Queen Poppy and Branch make a surprising discovery — there are other Troll worlds beyond their own, and their distinct differences create big clashes between these various tribes. When a mysterious threat puts all of the Trolls across the land in danger, Poppy, Branch, and their band of friends must embark on an epic quest to create harmony among the feuding Trolls to unite them against certain doom.",
      "release_date": "2020-03-12"
    },
    {
      "popularity": 354.463,
      "vote_count": 51,
      "video": false,
      "poster_path": "/xqbQtMffXwa3oprse4jiHBMBvdW.jpg",
      "id": 601844,
      "adult": false,
      "backdrop_path": "/qTrpw2ZUvN7ywUu1kieEsvNDrgQ.jpg",
      "original_language": "en",
      "original_title": "Becky",
      "genre_ids": [
        28,
        27,
        53
      ],
      "title": "Becky",
      "vote_average": 5,
      "overview": "A teenager's weekend at a lake house with her father takes a turn for the worse when a group of convicts wreaks havoc on their lives.",
      "release_date": "2020-07-23"
    },
    {
      "popularity": 354.032,
      "vote_count": 763,
      "video": false,
      "poster_path": "/7G2VvG1lU8q758uOqU6z2Ds0qpA.jpg",
      "id": 499932,
      "adult": false,
      "backdrop_path": "/rUeqBuNDR9zN6vZV9kpEFMtQm0E.jpg",
      "original_language": "en",
      "original_title": "The Devil All the Time",
      "genre_ids": [
        80,
        18,
        53
      ],
      "title": "The Devil All the Time",
      "vote_average": 7.4,
      "overview": "In Knockemstiff, Ohio and its neighboring backwoods, sinister characters converge around young Arvin Russell as he fights the evil forces that threaten him and his family.",
      "release_date": "2020-09-11"
    },
    {
      "popularity": 351.446,
      "vote_count": 164,
      "video": false,
      "poster_path": "/aVbqhqYtlxwEGihTEhewZAgDOCX.jpg",
      "id": 489326,
      "adult": false,
      "backdrop_path": "/dFB6Tiy3z2xRLbnEUB5ocApT5xG.jpg",
      "original_language": "en",
      "original_title": "Mortal",
      "genre_ids": [
        28,
        14,
        53
      ],
      "title": "Mortal",
      "vote_average": 6.6,
      "overview": "A young boy must discover the origins of his extraordinary powers before he is captured by authorities hell-bent on condemning him for an accidental murder.",
      "release_date": "2020-02-28"
    },
    {
      "popularity": 347.12,
      "vote_count": 5286,
      "video": false,
      "poster_path": "/y95lQLnuNKdPAzw9F9Ab8kJ80c3.jpg",
      "id": 38700,
      "adult": false,
      "backdrop_path": "/upUy2QhMZEmtypPW3PdieKLAHxh.jpg",
      "original_language": "en",
      "original_title": "Bad Boys for Life",
      "genre_ids": [
        28,
        80,
        53
      ],
      "title": "Bad Boys for Life",
      "vote_average": 7.3,
      "overview": "Marcus and Mike are forced to confront new threats, career changes, and midlife crises as they join the newly created elite team AMMO of the Miami police department to take down the ruthless Armando Armas, the vicious leader of a Miami drug cartel.",
      "release_date": "2020-01-15"
    },
    {
      "popularity": 344.249,
      "vote_count": 105,
      "video": false,
      "poster_path": "/dnN1ncxEOO1TY0gYL2FWxJqlhlL.jpg",
      "id": 603119,
      "adult": false,
      "backdrop_path": "/aRyTzHXl9A0vHsd3zd8w2IJxezn.jpg",
      "original_language": "en",
      "original_title": "The Silencing",
      "genre_ids": [
        28,
        80,
        53
      ],
      "title": "The Silencing",
      "vote_average": 6.9,
      "overview": "A reformed hunter becomes involved in a deadly game of cat and mouse when he and the local sheriff set out to track a vicious killer who may have kidnapped his daughter years ago.",
      "release_date": "2020-07-18"
    },
    {
      "popularity": 341.312,
      "vote_count": 71,
      "video": false,
      "poster_path": "/1SGdP60ebBDDxdnWo5VulwmR44C.jpg",
      "id": 737802,
      "adult": false,
      "backdrop_path": "/j3WCc9mc33PSgkPIy2pv2TAtxJd.jpg",
      "original_language": "es",
      "original_title": "Se busca papá",
      "genre_ids": [
        35,
        18,
        10751
      ],
      "title": "Dad Wanted",
      "vote_average": 7.8,
      "overview": "What does a thrill-seeker tween girl do when her mom forbids her to enter a BMX race? Cast an actor with nothing to lose to play her approving dad.",
      "release_date": "2020-09-11"
    },
    {
      "popularity": 338.637,
      "vote_count": 179,
      "video": false,
      "poster_path": "/l9ruFmHoUws4A45s8FBZuMNC6Mu.jpg",
      "id": 701175,
      "adult": false,
      "backdrop_path": "/ggTmRBvZ6ZzgMLVCnmQCUoITVhl.jpg",
      "original_language": "es",
      "original_title": "El practicante",
      "genre_ids": [
        18,
        53
      ],
      "title": "The Paramedic",
      "vote_average": 6.3,
      "overview": "Unable to face his new reality in a wheelchair, Ángel develops a deadly obsession with the woman who left him and unleashes a sinister revenge plot.",
      "release_date": "2020-09-16"
    },
    {
      "popularity": 331.975,
      "vote_count": 1,
      "video": false,
      "poster_path": "/30P6D0z5ckguvAdKBnmadfGffR.jpg",
      "id": 635048,
      "adult": false,
      "backdrop_path": "/jt2hDGnAfQiYJLhwCCkuMEKzsn2.jpg",
      "original_language": "es",
      "original_title": "Perseguida",
      "genre_ids": [
        9648,
        53
      ],
      "title": "Persecuted",
      "vote_average": 8,
      "overview": "After witnessing the murder of a little girl's parents, a young woman becomes the child's protector and is forced to flee from the killers while trying to discover their motive.",
      "release_date": "2020-09-10"
    },
    {
      "popularity": 321.859,
      "vote_count": 63,
      "video": false,
      "poster_path": "/gzFatNrw0lhKD5NxaU6zC7S2KjP.jpg",
      "id": 659986,
      "adult": false,
      "backdrop_path": "/xUUtcxWC6H48UCrpRwwSPQz69XC.jpg",
      "original_language": "en",
      "original_title": "The Owners",
      "genre_ids": [
        28,
        27,
        53
      ],
      "title": "The Owners",
      "vote_average": 5.8,
      "overview": "A group of friends think they found the perfect easy score - an empty house with a safe full of cash. But when the elderly couple that lives there comes home early, the tables are suddenly turned. As a deadly game of cat and mouse ensues, the would-be thieves must fight to save themselves from a nightmare they could never have imagined.",
      "release_date": "2020-09-04"
    }
  ]
}