{
  "page": 1,
  "total_results": 144,
  "total_pages": 8,
  "results": [
    {
      "popularity": 6.356,
      "vote_count": 9,
      "video": false,
      "poster_path": "/kHQ81KIAq8kD9NfUmHjTgAahoCW.jpg",
      "id": 47369,
      "adult": false,
      "backdrop_path": "/mQZ0jXbTfY4RAfPPp3iuH6vtKcX.jpg",
      "original_language": "en",
      "original_title": "Avenger",
      "genre_ids": [
        28,
        53,
        10770
      ],
      "title": "Avenger",
      "vote_average": 6.1,
      "overview": "After his own daughter was killed in Panama in 1994, former CIA agent Calvin Dexter became a private 'specialist' in cases which wouldn't reach justice trough the regular legal channels. Two years later he accepts to find Richard 'Ricky' Edmunds for his pa, influential rich businessman Stephen Edmonds. Ricky for a private Canadian war victims charity in Bosnia and went missing. Dexter discovers Ricky was beaten to pulp and drowned for no other crime then helping street boys from the other side by Zoran Zilic and his Serbian paramilitary 'order'. He offers Steven to 'finish the job' as such war criminals don't go to trial. But deputy CIA director Paul Devereaux cares only for a nuclear arms project he wants to use Zilic for. So CIA troubleshooter Frank McBride is ordered to protect him and handle Dexter.",
      "release_date": "2006-04-09"
    },
    {
      "popularity": 19.825,
      "id": 1771,
      "video": false,
      "vote_count": 15088,
      "vote_average": 6.9,
      "title": "Captain America: The First Avenger",
      "release_date": "2011-07-22",
      "original_language": "en",
      "original_title": "Captain America: The First Avenger",
      "genre_ids": [
        28,
        12,
        878
      ],
      "backdrop_path": "/iQh64TQiPoTK3yZ3duC3y0tKgy3.jpg",
      "adult": false,
      "overview": "During World War II, Steve Rogers is a sickly man from Brooklyn who's transformed into super-soldier Captain America to aid in the war effort. Rogers must stop the Red Skull – Adolf Hitler's ruthless head of weaponry, and the leader of an organization that intends to use a mysterious device of untold powers for world domination.",
      "poster_path": "/vSNxAJTlD0r02V9sPYpOjqDZXUK.jpg"
    },
    {
      "popularity": 10.458,
      "vote_count": 269,
      "video": false,
      "poster_path": "/qRbAr8yilTnXssmk52po7RyqZSH.jpg",
      "id": 15239,
      "adult": false,
      "backdrop_path": "/UlFiZRQO0bR6mayux42KrLEQ4Y.jpg",
      "original_language": "en",
      "original_title": "The Toxic Avenger",
      "genre_ids": [
        28,
        35,
        27,
        878
      ],
      "title": "The Toxic Avenger",
      "vote_average": 6.3,
      "overview": "Tromaville has a monstrous new hero. The Toxic Avenger is born when mop boy Melvin Junko falls into a vat of toxic waste. Now evildoers will have a lot to lose.",
      "release_date": "1984-05-01"
    },
    {
      "popularity": 9.602,
      "vote_count": 76,
      "video": false,
      "poster_path": "/uJ5pZZJW2bHo5tKFARTMpo7js3i.jpg",
      "id": 28165,
      "adult": false,
      "backdrop_path": "/heajLgHXV87WPIp1rvA53qrABYj.jpg",
      "original_language": "en",
      "original_title": "The Toxic Avenger Part II",
      "genre_ids": [
        28,
        35,
        27
      ],
      "title": "The Toxic Avenger Part II",
      "vote_average": 5.2,
      "overview": "The Toxic Avenger is lured to Tokyo, Japan by the evil corporation Apocalypse Inc. So while the Toxic Avenger is fighting crime in Tokyo, Apocalypse Inc. spread evil in Tromaville.",
      "release_date": "1989-02-24"
    },
    {
      "popularity": 9.928,
      "vote_count": 62,
      "video": false,
      "poster_path": "/evB9pQHF1qR2UQtuApbaigcZwG5.jpg",
      "id": 27601,
      "adult": false,
      "backdrop_path": "/iXzTZ6oKXXrbTcibXIuIXQaikD9.jpg",
      "original_language": "en",
      "original_title": "Citizen Toxie: The Toxic Avenger IV",
      "genre_ids": [
        35,
        27
      ],
      "title": "Citizen Toxie: The Toxic Avenger IV",
      "vote_average": 6.5,
      "overview": "When the notorious Diaper Mafia take hostage the Tromaville School for the Very Special, only the Toxic Avenger and his morbidly obese sidekick Lardass can save Tromaville.",
      "release_date": "2001-11-01"
    },
    {
      "popularity": 4.133,
      "vote_count": 1,
      "video": false,
      "poster_path": "/g6ujxjwqB4GJTthfNYmw4PvtkVe.jpg",
      "id": 94740,
      "adult": false,
      "backdrop_path": null,
      "original_language": "en",
      "original_title": "The Double-D Avenger",
      "genre_ids": [
        28,
        35
      ],
      "title": "The Double-D Avenger",
      "vote_average": 2,
      "overview": "Three of the biggest and bustiest Russ Meyer stars - Kitten Natividad, Haji, and Raven De La Croix - make a comeback in 'The Double-D Avenger,' the first in a series of sexy action/comedy feature films by William Winckler Productions. Big, busty Chastity Knott must use her new amazing abilities as the super-stacked costumed crime fighter, the Double-D Avenger, to stop villainous bikini bar owner Al Purplewood and his sexy, murderous strippers.",
      "release_date": "2001-09-17"
    },
    {
      "popularity": 3.943,
      "vote_count": 7,
      "video": false,
      "poster_path": "/wQHY06KYBYSjuf1OukgZWCVEjX1.jpg",
      "id": 87302,
      "adult": false,
      "backdrop_path": null,
      "original_language": "en",
      "original_title": "Alien Space Avenger",
      "genre_ids": [
        35,
        27,
        878
      ],
      "title": "Alien Space Avenger",
      "vote_average": 3.4,
      "overview": "In 1939 a spaceship carrying four alien escaped prisoners crash-lands on Earth and the aliens take over the bodies of four locals. Fifty years later the aliens find out that an artist has written a comic book called \"Space Avenger,\" which they believe is about them. They go to New York to try to kill the artist.",
      "release_date": "1989-08-01"
    },
    {
      "popularity": 4.675,
      "vote_count": 8,
      "video": false,
      "poster_path": "/zqEWY1AqdTrST60Nb3AgYmmbVG6.jpg",
      "id": 35627,
      "adult": false,
      "backdrop_path": "/kPADHqRxLcKhzTDV0XNX97fxED.jpg",
      "original_language": "en",
      "original_title": "Samurai Avenger: The Blind Wolf",
      "genre_ids": [
        28,
        53
      ],
      "title": "Samurai Avenger: The Blind Wolf",
      "vote_average": 3.7,
      "overview": "A blind man seeks revenge against the psychopath who took away his sight and slaughtered his wife and daughter. Eight years after the massacre, the man has returned to the desert town, now a highly trained samurai swordsman ready to seek justice. But he doesn't know there awaits seven assassins hired by his sworn enemy who want the bounty on his head. Set in nowhere, no time, this bloody modern day fable is a new age hybrid action film with a classic samurai essence and a spaghetti western spirit. This is, \"Sushi Western!\"",
      "release_date": "2009-06-29"
    },
    {
      "popularity": 2.804,
      "vote_count": 6,
      "video": false,
      "poster_path": "/uodK7t5xwafCy4CzHIppwZkC4LN.jpg",
      "id": 623011,
      "adult": false,
      "backdrop_path": "/7Ybj8ndRmkVabSW3NRupyWKfSOK.jpg",
      "original_language": "en",
      "original_title": "Avenger Dogs",
      "genre_ids": [
        16
      ],
      "title": "Avenger Dogs",
      "vote_average": 4.2,
      "overview": "When the universe's highest-flying dogs warp into outer space, Skyfetcher and Spaceslobber get a call from canine headquarters! It seems an unknown force is attacking unsuspecting planets, and it's up to them to root out the source of the trouble!",
      "release_date": "2019-01-10"
    },
    {
      "popularity": 2.734,
      "vote_count": 4,
      "video": false,
      "poster_path": "/2Nr3mmiVcr3XBG8zkm9K9eLphM1.jpg",
      "id": 74315,
      "adult": false,
      "backdrop_path": "/9LcruHyYrxXaQWIH0LaQ5l6TZ42.jpg",
      "original_language": "en",
      "original_title": "The Invisible Avenger",
      "genre_ids": [
        28,
        18,
        53
      ],
      "title": "The Invisible Avenger",
      "vote_average": 4.8,
      "overview": "Lamont Cranston, aka The Shadow, investigates the murder of a New Orleans bandleader.",
      "release_date": "1958-12-02"
    },
    {
      "popularity": 4.271,
      "id": 517289,
      "video": false,
      "vote_count": 3,
      "vote_average": 6.7,
      "title": "The Toxic Avenger: The Musical",
      "release_date": "2018-04-07",
      "original_language": "en",
      "original_title": "The Toxic Avenger: The Musical",
      "genre_ids": [
        35,
        878
      ],
      "backdrop_path": "/5DOQQ8thUseOkYgIAbRcCWK6i9U.jpg",
      "adult": false,
      "overview": "Based on Lloyd Kaufman’s cult 1984 comedy film, The Toxic Avenger The Musical tells the story of the citizens of Tromaville who are crying out for a hero. Enter nerdy Melvin Ferd the Third, an aspiring earth scientist, determined to clean up the state’s major toxic waste problem. When a corrupt Mayor and her government goons get wind of his plans, they vow to stop this heroic feat. Melvin is attacked and tossed into a vat of toxic waste... transforming him instantly into The Toxic Avenger, New Jersey’s first superhero! Toxie is a 7-foot mutant freak with superhuman strength and a supersized heart to match. His aims are to save heavily polluted New Jersey, end global warming, win the heart of the prettiest (blindest) librarian in town - and get home in time for dinner!",
      "poster_path": "/orkWyM0GHSN1wfShZGS79ARXnPk.jpg"
    },
    {
      "popularity": 8.17,
      "vote_count": 56,
      "video": false,
      "poster_path": "/6RjZYi2814CA8452woTodTDK7ZN.jpg",
      "id": 28169,
      "adult": false,
      "backdrop_path": "/cUHGWbzAosZwesdIgbJi6nTKJtm.jpg",
      "original_language": "en",
      "original_title": "The Toxic Avenger Part III: The Last Temptation of Toxie",
      "genre_ids": [
        28,
        35,
        27,
        878
      ],
      "title": "The Toxic Avenger Part III: The Last Temptation of Toxie",
      "vote_average": 4.6,
      "overview": "Toxie finds he has nothing to do as a superhero, as he has ridden his city of evil. So he decides to go to work for a major corporation, which he discovers may be the evilest of all his adversaries.",
      "release_date": "1989-11-24"
    },
    {
      "popularity": 1.646,
      "vote_count": 2,
      "video": false,
      "poster_path": null,
      "id": 305597,
      "adult": false,
      "backdrop_path": null,
      "original_language": "en",
      "original_title": "The Avenger",
      "genre_ids": [
        37,
        10749
      ],
      "title": "The Avenger",
      "vote_average": 6.5,
      "overview": "Goss, Mason, and Kelly force Joaquin Murieta to watch as they hang his brother Juan for a crime he did not commit. To exact his revenge on the three, Joaquin becomes the notorious Black Shadow.",
      "release_date": "1931-03-06"
    },
    {
      "popularity": 2.489,
      "id": 174624,
      "video": false,
      "vote_count": 3,
      "vote_average": 5,
      "title": "Mask of the Avenger",
      "release_date": "1951-06-27",
      "original_language": "en",
      "original_title": "Mask of the Avenger",
      "genre_ids": [
        12,
        10749
      ],
      "backdrop_path": "/eJrlb1OaFZ4PvpLthNs0miSFhMz.jpg",
      "adult": false,
      "overview": "Costume swashbuckler with heroic John Derek battling evil Anthony Quinn.",
      "poster_path": "/sZxkF55EuO8b1Sl6Q9LeV5EO6P1.jpg"
    },
    {
      "popularity": 1.4,
      "vote_count": 1,
      "video": false,
      "poster_path": null,
      "id": 146041,
      "adult": false,
      "backdrop_path": null,
      "original_language": "en",
      "original_title": "Naked Avenger",
      "genre_ids": [],
      "title": "Naked Avenger",
      "vote_average": 4,
      "overview": "This movie follows a young girl, whose boyfriend has left her stranded on the side of the road without a car. Seeking only to get to her job, to pay her bills, she is picked up by a scout for the seedy underworld of white slavery and prostitution. With this, the action begins...",
      "release_date": "2008-02-11"
    },
    {
      "popularity": 1.298,
      "vote_count": 0,
      "video": false,
      "poster_path": null,
      "id": 272444,
      "adult": false,
      "backdrop_path": null,
      "original_language": "en",
      "original_title": "Manchurian Avenger",
      "genre_ids": [],
      "title": "Manchurian Avenger",
      "vote_average": 0,
      "overview": "Joe returns to Colorado after many years to help the man who brought him up, Kim. Joes father was killed by a gang looking to find some gold they believe he had found. Joe finds that Kim has also been murdered by them and tries to help his sister and her man to beat the gang and perhaps find the gold.",
      "release_date": "1985-04-10"
    },
    {
      "popularity": 1.358,
      "vote_count": 3,
      "video": false,
      "poster_path": "/tM6SZtyNfUHMzIIQN4Wf3MCX7M6.jpg",
      "id": 58935,
      "adult": false,
      "backdrop_path": null,
      "original_language": "en",
      "original_title": "Zorrita: Passion's Avenger",
      "genre_ids": [],
      "title": "Zorrita: Passion's Avenger",
      "vote_average": 5.2,
      "overview": "The virginal Bella has taken on a job as a maid for Lord Joffrey, who runs the small village where Bella and her mother live. Things quickly turn bad for Bella, however, as both Joffrey and his head maid treat her cruelly. Hope comes for the young woman when she discovers a book about the legend of Zorrita, a masked woman who would avenge injustices and seduce any man she wanted. Drawing inspiration from her fictional hero, Bella grabs a sword and a costume and sets out to start avenging and seducing.",
      "release_date": "2000-04-25"
    },
    {
      "popularity": 1.552,
      "vote_count": 2,
      "video": false,
      "poster_path": "/cEdL1Ia4ZKu8WBzNEudNZ6PP3dM.jpg",
      "id": 75796,
      "adult": false,
      "backdrop_path": null,
      "original_language": "en",
      "original_title": "The Dark Avenger",
      "genre_ids": [
        28,
        12
      ],
      "title": "The Dark Avenger",
      "vote_average": 8.5,
      "overview": "Edward, Prince of Wales, son and heir to his father King Edward III of England, leads an English army to the French province of Aquitaine to protect the inhabitant from the ravages of the French. After defeating the French in battle, the defeated French plot to kill the prince. Failing in this, they kidnap his lady, the lovely Lady Joan Holland. Of course Prince Edward has to ride to the rescue, adopting numerous guises to save his paramour, which ultimately end in him leading his men into one final climactic battle against the French. (Also known as \"The Warriors\" and \"The Black Prince\").",
      "release_date": "1955-09-11"
    },
    {
      "popularity": 1.091,
      "id": 530595,
      "video": false,
      "vote_count": 0,
      "vote_average": 0,
      "title": "The Avenger",
      "release_date": "1933-08-10",
      "original_language": "en",
      "original_title": "The Avenger",
      "genre_ids": [
        18
      ],
      "backdrop_path": null,
      "adult": false,
      "overview": "A disgraced former District Attorney plots his revenge on the members of a criminal gang who had him framed and sent to prison.",
      "poster_path": "/7zq9djqQ4hamEilqpiJf5gTCg2o.jpg"
    },
    {
      "popularity": 1.468,
      "vote_count": 3,
      "video": false,
      "poster_path": "/j7ISlQAkSuR6vsJrH5XJskjceSW.jpg",
      "id": 348313,
      "adult": false,
      "backdrop_path": "/phSfZMHoBVBUUyBw4uqBzKQNRFn.jpg",
      "original_language": "en",
      "original_title": "Zorro, the Avenger",
      "genre_ids": [
        12,
        37
      ],
      "title": "Zorro, the Avenger",
      "vote_average": 8.7,
      "overview": "Masked crusader Zorro and his father, Don Alejandro, face off against mysterious despot The Eagle in a fight for control of old Spanish California.",
      "release_date": "1959-09-10"
    }
  ]
}